EESchema Schematic File Version 2
LIBS:power
LIBS:device
LIBS:transistors
LIBS:conn
LIBS:linear
LIBS:regul
LIBS:74xx
LIBS:cmos4000
LIBS:adc-dac
LIBS:memory
LIBS:xilinx
LIBS:special
LIBS:microcontrollers
LIBS:dsp
LIBS:microchip
LIBS:analog_switches
LIBS:motorola
LIBS:texas
LIBS:intel
LIBS:audio
LIBS:interface
LIBS:digital-audio
LIBS:philips
LIBS:display
LIBS:cypress
LIBS:siliconi
LIBS:opto
LIBS:atmel
LIBS:contrib
LIBS:valves
EELAYER 25 0
EELAYER END
$Descr A4 11693 8268
encoding utf-8
Sheet 1 1
Title ""
Date ""
Rev ""
Comp ""
Comment1 ""
Comment2 ""
Comment3 ""
Comment4 ""
$EndDescr
$Comp
L ULN2003A U1
U 1 1 55A48FB3
P 5550 3700
F 0 "U1" H 5550 4250 70  0000 C CNN
F 1 "ULN2003A" H 5550 3150 70  0000 C CNN
F 2 "SMD_Packages:SO-16-N" H 5550 3700 60  0001 C CNN
F 3 "" H 5550 3700 60  0000 C CNN
	1    5550 3700
	1    0    0    -1  
$EndComp
$Comp
L DIODE D1
U 1 1 55A490CC
P 6700 4000
F 0 "D1" H 6700 4100 50  0000 C CNN
F 1 "SS14" H 6700 3900 50  0000 C CNN
F 2 "Diodes_SMD:Diode-SMA_Standard" H 6700 4000 60  0001 C CNN
F 3 "" H 6700 4000 60  0000 C CNN
	1    6700 4000
	0    -1   1    0   
$EndComp
$Comp
L CONN_01X05 P3
U 1 1 55A492A6
P 7200 3500
F 0 "P3" H 7200 3800 50  0000 C CNN
F 1 "STEPPER" V 7300 3500 50  0000 C CNN
F 2 "Pin_Headers:Pin_Header_Straight_1x05" H 7200 3500 60  0001 C CNN
F 3 "" H 7200 3500 60  0000 C CNN
	1    7200 3500
	1    0    0    -1  
$EndComp
Text Label 6750 3300 0    60   ~ 0
M1B
Text Label 6750 3500 0    60   ~ 0
M1A
Text Notes 7350 3350 0    60   ~ 0
BLUE
Text Notes 7350 3450 0    60   ~ 0
PINK
Text Notes 7350 3550 0    60   ~ 0
YELLOW
Text Notes 7350 3650 0    60   ~ 0
ORANGE
Text Notes 7350 3750 0    60   ~ 0
RED
Text Label 6750 3400 0    60   ~ 0
M2A
Text Label 6750 3600 0    60   ~ 0
M2B
$Comp
L R R5
U 1 1 55A49C48
P 6300 2650
F 0 "R5" V 6380 2650 50  0000 C CNN
F 1 "1K" V 6307 2651 50  0000 C CNN
F 2 "Resistors_SMD:R_0603" V 6230 2650 30  0001 C CNN
F 3 "" H 6300 2650 30  0000 C CNN
	1    6300 2650
	-1   0    0    1   
$EndComp
$Comp
L R R6
U 1 1 55A4A290
P 6500 2650
F 0 "R6" V 6580 2650 50  0000 C CNN
F 1 "1K" V 6507 2651 50  0000 C CNN
F 2 "Resistors_SMD:R_0603" V 6430 2650 30  0001 C CNN
F 3 "" H 6500 2650 30  0000 C CNN
	1    6500 2650
	-1   0    0    1   
$EndComp
$Comp
L R R1
U 1 1 55A4A4D6
P 4250 3700
F 0 "R1" V 4330 3700 50  0000 C CNN
F 1 "1K" V 4257 3701 50  0000 C CNN
F 2 "Resistors_SMD:R_0603" V 4180 3700 30  0001 C CNN
F 3 "" H 4250 3700 30  0000 C CNN
	1    4250 3700
	0    -1   -1   0   
$EndComp
$Comp
L R R2
U 1 1 55A4A552
P 4250 3900
F 0 "R2" V 4330 3900 50  0000 C CNN
F 1 "1K" V 4257 3901 50  0000 C CNN
F 2 "Resistors_SMD:R_0603" V 4180 3900 30  0001 C CNN
F 3 "" H 4250 3900 30  0000 C CNN
	1    4250 3900
	0    -1   -1   0   
$EndComp
Text Label 4650 3400 0    60   ~ 0
C2
Text Label 4650 3300 0    60   ~ 0
~C1
Text Label 4650 3600 0    60   ~ 0
~C2
$Comp
L R R3
U 1 1 55A4C799
P 5550 3000
F 0 "R3" V 5630 3000 50  0000 C CNN
F 1 "0R" V 5557 3001 50  0000 C CNN
F 2 "Resistors_SMD:R_0603" V 5480 3000 30  0001 C CNN
F 3 "" H 5550 3000 30  0000 C CNN
	1    5550 3000
	0    -1   -1   0   
$EndComp
$Comp
L R R4
U 1 1 55A4C8F5
P 5550 4400
F 0 "R4" V 5630 4400 50  0000 C CNN
F 1 "0R" V 5557 4401 50  0000 C CNN
F 2 "Resistors_SMD:R_0603" V 5480 4400 30  0001 C CNN
F 3 "" H 5550 4400 30  0000 C CNN
	1    5550 4400
	0    -1   -1   0   
$EndComp
$Comp
L VPP #PWR01
U 1 1 55A4D2C0
P 6500 2200
F 0 "#PWR01" H 6500 2050 60  0001 C CNN
F 1 "VPP" H 6500 2350 60  0000 C CNN
F 2 "" H 6500 2200 60  0000 C CNN
F 3 "" H 6500 2200 60  0000 C CNN
	1    6500 2200
	1    0    0    -1  
$EndComp
$Comp
L CONN_01X02 P2
U 1 1 55A4D34A
P 7200 2850
F 0 "P2" H 7200 3000 50  0000 C CNN
F 1 "POWER" V 7300 2850 50  0000 C CNN
F 2 "Pin_Headers:Pin_Header_Straight_1x02" H 7200 2850 60  0001 C CNN
F 3 "" H 7200 2850 60  0000 C CNN
	1    7200 2850
	1    0    0    -1  
$EndComp
$Comp
L CONN_01X05 P1
U 1 1 55A4D43C
P 3400 3500
F 0 "P1" H 3400 3800 50  0000 C CNN
F 1 "CONTROL" V 3500 3500 50  0000 C CNN
F 2 "Pin_Headers:Pin_Header_Straight_1x05" H 3400 3500 60  0001 C CNN
F 3 "" H 3400 3500 60  0000 C CNN
	1    3400 3500
	-1   0    0    1   
$EndComp
$Comp
L GND #PWR02
U 1 1 55A4D54B
P 3700 3800
F 0 "#PWR02" H 3700 3550 60  0001 C CNN
F 1 "GND" H 3700 3650 60  0000 C CNN
F 2 "" H 3700 3800 60  0000 C CNN
F 3 "" H 3700 3800 60  0000 C CNN
	1    3700 3800
	1    0    0    -1  
$EndComp
$Comp
L GND #PWR03
U 1 1 55A4D8BC
P 6900 2700
F 0 "#PWR03" H 6900 2450 60  0001 C CNN
F 1 "GND" H 6900 2550 60  0000 C CNN
F 2 "" H 6900 2700 60  0000 C CNN
F 3 "" H 6900 2700 60  0000 C CNN
	1    6900 2700
	-1   0    0    1   
$EndComp
Text Notes 3950 5350 0    60   ~ 0
8-phase (4-phase) stepper motor driver.\n\nR1-R6 is optional and would be used for 4-phase (2-wire) control only.\n\n8-phase mode:\nCONTROL 4, 3, 2, 5\n\n4-phase mode:\nCONTROL 4, 3
Text Label 4650 3500 0    60   ~ 0
C1
Wire Wire Line
	6200 4100 6300 4100
Wire Wire Line
	6200 3400 7000 3400
Wire Wire Line
	6200 3500 7000 3500
Wire Wire Line
	6200 3600 7000 3600
Wire Wire Line
	6700 3700 7000 3700
Wire Wire Line
	6300 2900 6300 3700
Wire Wire Line
	3600 3300 4900 3300
Wire Wire Line
	4800 3300 4800 3000
Connection ~ 6300 3000
Wire Wire Line
	6300 2400 6300 2300
Wire Wire Line
	6300 2300 6700 2300
Wire Wire Line
	6500 2200 6500 2400
Wire Wire Line
	3600 3600 4900 3600
Wire Wire Line
	3600 3400 4900 3400
Wire Wire Line
	4000 3700 3900 3700
Wire Wire Line
	4000 3900 3800 3900
Wire Wire Line
	3800 3900 3800 3400
Connection ~ 3800 3400
Connection ~ 6500 2300
Wire Wire Line
	6700 2300 6700 3800
Connection ~ 4800 3300
Wire Wire Line
	6300 3000 5800 3000
Wire Wire Line
	4800 3000 5300 3000
Connection ~ 4800 3600
Wire Wire Line
	4800 4400 4800 3600
Wire Wire Line
	5300 4400 4800 4400
Wire Wire Line
	3600 3700 3700 3700
Wire Wire Line
	3700 3700 3700 3800
Wire Wire Line
	7000 2900 6700 2900
Connection ~ 6700 2900
Wire Wire Line
	7000 2800 6900 2800
Wire Wire Line
	6900 2800 6900 2700
Wire Wire Line
	3600 3500 4900 3500
Connection ~ 3900 3500
Wire Wire Line
	3900 3700 3900 3500
$Comp
L GND #PWR04
U 1 1 55A52B68
P 4700 4000
F 0 "#PWR04" H 4700 3750 60  0001 C CNN
F 1 "GND" H 4700 3850 60  0000 C CNN
F 2 "" H 4700 4000 60  0000 C CNN
F 3 "" H 4700 4000 60  0000 C CNN
	1    4700 4000
	1    0    0    -1  
$EndComp
Connection ~ 6700 3700
Wire Wire Line
	6700 4200 6700 4300
Wire Wire Line
	6700 4300 6300 4300
Wire Wire Line
	6300 4300 6300 4100
Wire Wire Line
	7000 3300 6200 3300
Wire Wire Line
	6300 3700 6200 3700
Wire Wire Line
	4900 3700 4500 3700
Wire Wire Line
	6500 2900 6500 4400
Wire Wire Line
	4900 3800 4600 3800
Wire Wire Line
	4500 3900 4600 3900
Wire Wire Line
	4600 3900 4600 3800
Wire Wire Line
	6500 3800 6200 3800
Wire Wire Line
	6500 4400 5800 4400
Connection ~ 6500 3800
Wire Wire Line
	4900 3900 4700 3900
Wire Wire Line
	4700 3900 4700 4000
$EndSCHEMATC
